{
  "group": "minertools",
  "type": "minecraft:crafting_shaped",
  "pattern": [
    "012",
    " 4 ",
    " 7 "
  ],
  "key": {
    "0": {
      "item": "minertools:iron_blade"
    },
    "1": {
      "item": "minecraft:iron_ingot"
    },
    "2": {
      "item": "minertools:iron_blade"
    },
    "4": {
      "item": "minertools:enforced_grip"
    },
    "7": {
      "item": "minecraft:stick"
    }
  },
  "result": {
    "item": "minertools:iron_pickaxe_plus",
    "count": 1
  }
}