{
  "group": "minertools",
  "type": "minecraft:crafting_shaped",
  "pattern": [
    "01 ",
    "345",
    "6  "
  ],
  "key": {
    "0": {
      "item": "minecraft:stone",
      "data": 32767
    },
    "1": {
      "item": "minecraft:stone",
      "data": 32767
    },
    "3": {
      "item": "minecraft:stone",
      "data": 32767
    },
    "4": {
      "item": "minecraft:stone",
      "data": 32767
    },
    "5": {
      "item": "minecraft:stone",
      "data": 32767
    },
    "6": {
      "item": "minertools:sharper"
    }
  },
  "result": {
    "item": "minertools:stone_blade",
    "count": 1
  }
}